{
  "title": "Nested IF Statements",
  "steps": [
    {
      "instructions": "<p>We're going to bring our collection to a party. We'd like to label each sauce based on its spiciness, so people know what to expect.</p><p>Let's start by using a basic IF statement to label sauces with the following categories:</p><ul><li>Hot: > 50,000</li><li>Mild: at or below 50,000</li></ul>",
      "tableData": [
        ["Hot Sauce", "Price", "Origin", "Scoville Scale", "Label", "My Rating (1-10)", "In Stock"],
        ["Aztec Fire", "5.39", "Mexico", "180000", "", "9", true],
        ["Chili Oil", "2.89", "Japan", "60000", "", "4", true],
        ["Sweet Piri Piri", "3.49", "Africa", "35000", "", "6", true],
        ["Salsa de Puebla", "8.59", "Mexico", "250", "", "2", true],
        ["Pepe's Peppers", "4.99", "Mexico", "6000", "", "8", true],
        ["Tabasco Sauce", "1.99", "USA", "950", "", "5", true],
        ["Tiny Pepper", "7.29", "Mexico", "80000", "", "6", true],
        ["Fuego Loco", "4.99", "Mexico City", "140000", "", "7", true]
      ],
      "tableSettings": [
        {
          "range": "A1:G1",
          "action": "set",
          "options": {
            "property": "format.font.bold",
            "value": true
          }
        },
        {
          "range": "A1:G1",
          "action": "border",
          "options": {
            "position": "EdgeBottom",
            "style": "Continuous"
          }
        },
        {
          "range": "B2:B9",
          "action": "set",
          "options": {
            "property": "numberFormat",
            "value": "$0.00"
          }
        },
        {
          "range": "B:B",
          "action": "set",
          "options": {
            "property": "format.columnWidth",
            "value": 38
          }
        }
      ],
      "checkData": {
        "E2": [
          {
            "name": "beginsWithEquals"
          },
          {
            "name": "containsIF"
          },
          {
            "name": "usesCellRefs"
          },
          {
            "name": "referencesCellD2",
            "regex": "D2",
            "data": {
              "mistakeMessage": "This function should include a reference to cell D2."
            }
          },
          {
            "name": "contains50000",
            "regex": "50000",
            "data": {
              "mistakeMessage": "This condition should be comparing its value to 50000."
            }
          },
          {
            "name": "containsHot",
            "regex": "Hot",
            "data": {
              "mistakeMessage": "Whoops. This function should include \"Hot\" as one of the condition outcomes."
            }
          },
          {
            "name": "containsMild",
            "regex": "Mild",
            "data": {
              "mistakeMessage": "Whoops. This function should include \"Mild\" as one of the condition outcomes."
            }
          },
          {
            "name": "eqHot",
            "result": "Hot",
            "data": {
              "mistakeMessage": "We're expecting the result of this condtion to be \"Hot\"."
            }
          }
        ],
        "E3": [
          {
            "name": "beginsWithEquals"
          },
          {
            "name": "containsIF"
          },
          {
            "name": "usesCellRefs"
          },
          {
            "name": "referencesCellD3",
            "regex": "D3",
            "data": {
              "mistakeMessage": "This function should include a reference to cell D3."
            }
          },
          {
            "name": "contains50000"
          },
          {
            "name": "containsHot"
          },
          {
            "name": "containsMild"
          },
          {
            "name": "eqHot"
          }
        ],
        "E4": [
          {
            "name": "beginsWithEquals"
          },
          {
            "name": "containsIF"
          },
          {
            "name": "usesCellRefs"
          },
          {
            "name": "referencesCellD4",
            "regex": "D4",
            "data": {
              "mistakeMessage": "This function should include a reference to cell D4."
            }
          },
          {
            "name": "contains50000"
          },
          {
            "name": "containsHot"
          },
          {
            "name": "containsMild"
          },
          {
            "name": "eqMild",
            "result": "Mild",
            "data": {
              "mistakeMessage": "We're expecting the result of this condtion to be \"Mild\"."
            }
          }
        ],
        "E5": [
          {
            "name": "beginsWithEquals"
          },
          {
            "name": "containsIF"
          },
          {
            "name": "usesCellRefs"
          },
          {
            "name": "referencesCellD5",
            "regex": "D5",
            "data": {
              "mistakeMessage": "This function should include a reference to cell D5."
            }
          },
          {
            "name": "contains50000"
          },
          {
            "name": "containsHot"
          },
          {
            "name": "containsMild"
          },
          {
            "name": "eqMild"
          }
        ],
        "E6": [
          {
            "name": "beginsWithEquals"
          },
          {
            "name": "containsIF"
          },
          {
            "name": "usesCellRefs"
          },
          {
            "name": "referencesCellD6",
            "regex": "D6",
            "data": {
              "mistakeMessage": "This function should include a reference to cell D6."
            }
          },
          {
            "name": "contains50000"
          },
          {
            "name": "containsHot"
          },
          {
            "name": "containsMild"
          },
          {
            "name": "eqMild"
          }
        ],
        "E7": [
          {
            "name": "beginsWithEquals"
          },
          {
            "name": "containsIF"
          },
          {
            "name": "usesCellRefs"
          },
          {
            "name": "referencesCellD7",
            "regex": "D7",
            "data": {
              "mistakeMessage": "This function should include a reference to cell D7."
            }
          },
          {
            "name": "contains50000"
          },
          {
            "name": "containsHot"
          },
          {
            "name": "containsMild"
          },
          {
            "name": "eqMild"
          }
        ],
        "E8": [
          {
            "name": "beginsWithEquals"
          },
          {
            "name": "containsIF"
          },
          {
            "name": "usesCellRefs"
          },
          {
            "name": "referencesCellD8",
            "regex": "D8",
            "data": {
              "mistakeMessage": "This function should include a reference to cell D8."
            }
          },
          {
            "name": "contains50000"
          },
          {
            "name": "containsHot"
          },
          {
            "name": "containsMild"
          },
          {
            "name": "eqHot"
          }
        ],
        "E9": [
          {
            "name": "beginsWithEquals"
          },
          {
            "name": "containsIF"
          },
          {
            "name": "usesCellRefs"
          },
          {
            "name": "referencesCellD9",
            "regex": "D9",
            "data": {
              "mistakeMessage": "This function should include a reference to cell D9."
            }
          },
          {
            "name": "contains50000"
          },
          {
            "name": "containsHot"
          },
          {
            "name": "containsMild"
          },
          {
            "name": "eqHot"
          }
        ]
      }
    },
    {
      "instructions": "<p>In an effort to be more descriptive, use nested IF statements to break up our labeling into the following categories:</p><ul><li>Very Hot: > 130,000</li><li>Hot: > 50,000</li><li>Medium: > 20,000</li><li>Mild: at or below 20,000</li></ul>",
      "tableData": [
        ["Hot Sauce", "Price", "Origin", "Scoville Scale", "Label", "My Rating (1-10)", "In Stock"],
        ["Aztec Fire", "5.39", "Mexico", "180000", "=IF(D2>50000, \"Hot\", \"Mild\")", "9", true],
        ["Chili Oil", "2.89", "Japan", "60000", "=IF(D3>50000, \"Hot\", \"Mild\")", "4", true],
        ["Sweet Piri Piri", "3.49", "Africa", "35000", "=IF(D4>50000, \"Hot\", \"Mild\")", "6", true],
        ["Salsa de Puebla", "8.59", "Mexico", "250", "=IF(D5>50000, \"Hot\", \"Mild\")", "2", true],
        ["Pepe's Peppers", "4.99", "Mexico", "6000", "=IF(D6>50000, \"Hot\", \"Mild\")", "8", true],
        ["Tabasco Sauce", "1.99", "USA", "950", "=IF(D7>50000, \"Hot\", \"Mild\")", "5", true],
        ["Tiny Pepper", "7.29", "Mexico", "80000", "=IF(D8>50000, \"Hot\", \"Mild\")", "6", true],
        ["Fuego Loco", "4.99", "Mexico City", "140000", "=IF(D9>50000, \"Hot\", \"Mild\")", "7", true]
      ],
      "tableSettings": [
        {
          "range": "A1:G1",
          "action": "set",
          "options": {
            "property": "format.font.bold",
            "value": true
          }
        },
        {
          "range": "A1:G1",
          "action": "border",
          "options": {
            "position": "EdgeBottom",
            "style": "Continuous"
          }
        },
        {
          "range": "B2:B9",
          "action": "set",
          "options": {
            "property": "numberFormat",
            "value": "$0.00"
          }
        },
        {
          "range": "E:E",
          "action": "set",
          "options": {
            "property": "format.columnWidth",
            "value": 48
          }
        },
        {
          "range": "B:B",
          "action": "set",
          "options": {
            "property": "format.columnWidth",
            "value": 38
          }
        }
      ],
      "checkData": {
        "E2": [
          {
            "name": "beginsWithEquals"
          },
          {
            "name": "containsIF"
          },
          {
            "name": "contains_N_IFs",
            "data": {
              "numberOfIfs": 3,
              "mistakeMessage": "This formula should include 2 nested IF statement."
            }
          },
          {
            "name": "usesCellRefs"
          },
          {
            "name": "referencesCellD2",
            "regex": "D2",
            "data": {
              "mistakeMessage": "This function should include a reference to cell D2."
            }
          },
          {
            "name": "contains130000",
            "regex": "130000",
            "data": {
              "mistakeMessage": "This formula should include a comparison to 130000."
            }
          },
          {
            "name": "contains50000",
            "regex": "50000",
            "data": {
              "mistakeMessage": "This formula should include a comparison to 50000."
            }
          },
          {
            "name": "contains20000",
            "regex": "20000",
            "data": {
              "mistakeMessage": "This formula should include a comparison to 20000."
            }
          },
          {
            "name": "containsVeryHot",
            "regex": "VeryHot",
            "data": {
              "mistakeMessage": "Whoops. This function should include \"Very Hot\" as one of the condition outcomes."
            }
          },
          {
            "name": "containsHot",
            "regex": "Hot",
            "data": {
              "mistakeMessage": "Whoops. This function should include \"Hot\" as one of the condition outcomes."
            }
          },
          {
            "name": "containsMedium",
            "regex": "Medium",
            "data": {
              "mistakeMessage": "Whoops. This function should include \"Mild\" as one of the condition outcomes."
            }
          },
          {
            "name": "containsMild",
            "regex": "Mild",
            "data": {
              "mistakeMessage": "Whoops. This function should include \"Mild\" as one of the condition outcomes."
            }
          },
          {
            "name": "eqVeryHot",
            "result": "Very Hot",
            "data": {
              "mistakeMessage": "Uh oh. The result of this nested IF statement should be \"Very Hot\"."
            }
          }
        ],
        "E3": [
          {
            "name": "beginsWithEquals"
          },
          {
            "name": "containsIF"
          },
          {
            "name": "contains_N_IFs"
          },
          {
            "name": "usesCellRefs"
          },
          {
            "name": "referencesCellD3",
            "regex": "D3",
            "data": {
              "mistakeMessage": "This function should include a reference to cell D3."
            }
          },
          {
            "name": "contains130000"
          },
          {
            "name": "contains50000"
          },
          {
            "name": "contains20000"
          },
          {
            "name": "containsVeryHot"
          },
          {
            "name": "containsHot"
          },
          {
            "name": "containsMedium"
          },
          {
            "name": "containsMild"
          },
          {
            "name": "eqHot",
            "result": "Hot",
            "data": {
              "mistakeMessage": "Uh oh. The result of this nested IF statement should be \"Hot\"."
            }
          }
        ],
        "E4": [
          {
            "name": "beginsWithEquals"
          },
          {
            "name": "containsIF"
          },
          {
            "name": "contains_N_IFs"
          },
          {
            "name": "usesCellRefs"
          },
          {
            "name": "referencesCellD4",
            "regex": "D4",
            "data": {
              "mistakeMessage": "This function should include a reference to cell D4."
            }
          },
          {
            "name": "contains130000"
          },
          {
            "name": "contains50000"
          },
          {
            "name": "contains20000"
          },
          {
            "name": "containsVeryHot"
          },
          {
            "name": "containsHot"
          },
          {
            "name": "containsMedium"
          },
          {
            "name": "containsMild"
          },
          {
            "name": "eqMedium",
            "result": "Medium",
            "data": {
              "mistakeMessage": "Uh oh. The result of this nested IF statement should be \"Medium\"."
            }
          }
        ],
        "E5": [
          {
            "name": "beginsWithEquals"
          },
          {
            "name": "containsIF"
          },
          {
            "name": "contains_N_IFs"
          },
          {
            "name": "usesCellRefs"
          },
          {
            "name": "referencesCellD5",
            "regex": "D5",
            "data": {
              "mistakeMessage": "This function should include a reference to cell D5."
            }
          },
          {
            "name": "contains130000"
          },
          {
            "name": "contains50000"
          },
          {
            "name": "contains20000"
          },
          {
            "name": "containsVeryHot"
          },
          {
            "name": "containsHot"
          },
          {
            "name": "containsMedium"
          },
          {
            "name": "containsMild"
          },
          {
            "name": "eqMild",
            "result": "Mild",
            "data": {
              "mistakeMessage": "Uh oh. The result of this nested IF statement should be \"Mild\"."
            }
          }
        ],
        "E6": [
          {
            "name": "beginsWithEquals"
          },
          {
            "name": "containsIF"
          },
          {
            "name": "contains_N_IFs"
          },
          {
            "name": "usesCellRefs"
          },
          {
            "name": "referencesCellD6",
            "regex": "D6",
            "data": {
              "mistakeMessage": "This function should include a reference to cell D6."
            }
          },
          {
            "name": "contains130000"
          },
          {
            "name": "contains50000"
          },
          {
            "name": "contains20000"
          },
          {
            "name": "containsVeryHot"
          },
          {
            "name": "containsHot"
          },
          {
            "name": "containsMedium"
          },
          {
            "name": "containsMild"
          },
          {
            "name": "eqMild"
          }
        ],
        "E7": [
          {
            "name": "beginsWithEquals"
          },
          {
            "name": "containsIF"
          },
          {
            "name": "contains_N_IFs"
          },
          {
            "name": "usesCellRefs"
          },
          {
            "name": "referencesCellD7",
            "regex": "D7",
            "data": {
              "mistakeMessage": "This function should include a reference to cell D7."
            }
          },
          {
            "name": "contains130000"
          },
          {
            "name": "contains50000"
          },
          {
            "name": "contains20000"
          },
          {
            "name": "containsVeryHot"
          },
          {
            "name": "containsHot"
          },
          {
            "name": "containsMedium"
          },
          {
            "name": "containsMild"
          },
          {
            "name": "eqMild"
          }
        ],
        "E8": [
          {
            "name": "beginsWithEquals"
          },
          {
            "name": "containsIF"
          },
          {
            "name": "contains_N_IFs"
          },
          {
            "name": "usesCellRefs"
          },
          {
            "name": "referencesCellD8",
            "regex": "D8",
            "data": {
              "mistakeMessage": "This function should include a reference to cell D8."
            }
          },
          {
            "name": "contains130000"
          },
          {
            "name": "contains50000"
          },
          {
            "name": "contains20000"
          },
          {
            "name": "containsVeryHot"
          },
          {
            "name": "containsHot"
          },
          {
            "name": "containsMedium"
          },
          {
            "name": "containsMild"
          },
          {
            "name": "eqHot"
          }
        ],
        "E9": [
          {
            "name": "beginsWithEquals"
          },
          {
            "name": "containsIF"
          },
          {
            "name": "contains_N_IFs"
          },
          {
            "name": "usesCellRefs"
          },
          {
            "name": "referencesCellD9",
            "regex": "D9",
            "data": {
              "mistakeMessage": "This function should include a reference to cell D9."
            }
          },
          {
            "name": "contains130000"
          },
          {
            "name": "contains50000"
          },
          {
            "name": "contains20000"
          },
          {
            "name": "containsVeryHot"
          },
          {
            "name": "containsHot"
          },
          {
            "name": "containsMedium"
          },
          {
            "name": "containsMild"
          },
          {
            "name": "eqVeryHot"
          }
        ]
      }
    },
    {
      "instructions": "<p>We'd like to give away one of our favorite hot sauces as a gift to the party's host, but the host prefers mild flavors. Create a nested IF statement for each sauce, to identify possible gifts. This statement should:</p><ol><li>Check that the hot sauce is rated > 6</li><li>Check that it's labeled as \"Mild\"</li></ol><p>If both conditions are met, the formula should return \"Give as gift\". In all other cases, it should return an empty string (\"\").</p>",
      "tableData": [
        ["Hot Sauce", "Price", "Origin", "Scoville Scale", "Label", "My Rating (1-10)", "In Stock", "Notes"],
        ["Aztec Fire", "5.39", "Mexico", "180000", "=IF(D2>130000, \"Very Hot\", IF(D2>50000, \"Hot\", IF(D2>20000, \"Medium\", \"Mild\")))", "9", true, ""],
        ["Chili Oil", "2.89", "Japan", "60000", "=IF(D3>130000, \"Very Hot\", IF(D3>50000, \"Hot\", IF(D3>20000, \"Medium\", \"Mild\")))", "4", true, ""],
        ["Sweet Piri Piri", "3.49", "Africa", "35000", "=IF(D4>130000, \"Very Hot\", IF(D4>50000, \"Hot\", IF(D4>20000, \"Medium\", \"Mild\")))", "6", true, ""],
        ["Salsa de Puebla", "8.59", "Mexico", "250", "=IF(D5>130000, \"Very Hot\", IF(D5>50000, \"Hot\", IF(D5>20000, \"Medium\", \"Mild\")))", "2", true, ""],
        ["Pepe's Peppers", "4.99", "Mexico", "6000", "=IF(D6>130000, \"Very Hot\", IF(D6>50000, \"Hot\", IF(D6>20000, \"Medium\", \"Mild\")))", "8", true, ""],
        ["Tabasco Sauce", "1.99", "USA", "950", "=IF(D7>130000, \"Very Hot\", IF(D7>50000, \"Hot\", IF(D7>20000, \"Medium\", \"Mild\")))", "5", true, ""],
        ["Tiny Pepper", "7.29", "Mexico", "80000", "=IF(D8>130000, \"Very Hot\", IF(D8>50000, \"Hot\", IF(D8>20000, \"Medium\", \"Mild\")))", "6", true, ""],
        ["Fuego Loco", "4.99", "Mexico City", "140000", "=IF(D9>130000, \"Very Hot\", IF(D9>50000, \"Hot\", IF(D9>20000, \"Medium\", \"Mild\")))", "7", true, ""]
      ],
      "tableSettings": [
        {
          "range": "A1:H1",
          "action": "set",
          "options": {
            "property": "format.font.bold",
            "value": true
          }
        },
        {
          "range": "A1:H1",
          "action": "border",
          "options": {
            "position": "EdgeBottom",
            "style": "Continuous"
          }
        },
        {
          "range": "B2:B9",
          "action": "set",
          "options": {
            "property": "numberFormat",
            "value": "$0.00"
          }
        },
        {
          "range": "H:H",
          "action": "set",
          "options": {
            "property": "format.columnWidth",
            "value": 64
          }
        },
        {
          "range": "B:B",
          "action": "set",
          "options": {
            "property": "format.columnWidth",
            "value": 38
          }
        }
      ],
      "checkData": {
        "H2": [
          {
            "name": "beginsWithEquals"
          },
          {
            "name": "containsIF"
          },
          {
            "name": "contains_N_IFs",
            "data": {
              "numberOfIfs": 2,
              "mistakeMessage": "This formula should include 1 nested IF statement."
            }
          },
          {
            "name": "usesCellRefs"
          },
          {
            "name": "referencesCellE2",
            "regex": "E2",
            "data": {
              "mistakeMessage": "This function should include a reference to cell E2."
            }
          },
          {
            "name": "referencesCellF2",
            "regex": "F2",
            "data": {
              "mistakeMessage": "This function should include a reference to cell F2."
            }
          },
          {
            "name": "containsGTorLT",
            "regex": "(>(?!=)|<(?!=))",
            "data": {
              "mistakeMessage": "Hmm, we're expecting this formula to use an inequality operator like >."
            }
          },
          {
            "name": "containsMild",
            "regex": "Mild",
            "data": {
              "mistakeMessage": "Whoops. This function should include a comparison to the label \"Mild\"."
            }
          },
          {
            "name": "containsGiveAsGift",
            "regex": "Giveasgift",
            "data": {
              "mistakeMessage": "Whoops. This function should include \"Give as gift\" as one of the condition outcomes."
            }
          },
          {
            "name": "resultIsEmptyString"
          }
        ],
        "H3": [
          {
            "name": "beginsWithEquals"
          },
          {
            "name": "containsIF"
          },
          {
            "name": "contains_N_IFs"
          },
          {
            "name": "usesCellRefs"
          },
          {
            "name": "referencesCellE3",
            "regex": "E3",
            "data": {
              "mistakeMessage": "This function should include a reference to cell E3."
            }
          },
          {
            "name": "referencesCellF3",
            "regex": "F3",
            "data": {
              "mistakeMessage": "This function should include a reference to cell F3."
            }
          },
          {
            "name": "containsGTorLT"
          },
          {
            "name": "containsMild"
          },
          {
            "name": "containsGiveAsGift"
          },
          {
            "name": "resultIsEmptyString"
          }
        ],
        "H4": [
          {
            "name": "beginsWithEquals"
          },
          {
            "name": "containsIF"
          },
          {
            "name": "contains_N_IFs"
          },
          {
            "name": "usesCellRefs"
          },
          {
            "name": "referencesCellE4",
            "regex": "E4",
            "data": {
              "mistakeMessage": "This function should include a reference to cell E4."
            }
          },
          {
            "name": "referencesCellF4",
            "regex": "F4",
            "data": {
              "mistakeMessage": "This function should include a reference to cell F4."
            }
          },
          {
            "name": "containsGTorLT"
          },
          {
            "name": "containsMild"
          },
          {
            "name": "containsGiveAsGift"
          },
          {
            "name": "resultIsEmptyString"
          }
        ],
        "H5": [
          {
            "name": "beginsWithEquals"
          },
          {
            "name": "containsIF"
          },
          {
            "name": "contains_N_IFs"
          },
          {
            "name": "usesCellRefs"
          },
          {
            "name": "referencesCellE5",
            "regex": "E5",
            "data": {
              "mistakeMessage": "This function should include a reference to cell E5."
            }
          },
          {
            "name": "referencesCellF5",
            "regex": "F5",
            "data": {
              "mistakeMessage": "This function should include a reference to cell F5."
            }
          },
          {
            "name": "containsGTorLT"
          },
          {
            "name": "containsMild"
          },
          {
            "name": "containsGiveAsGift"
          },
          {
            "name": "resultIsEmptyString"
          }
        ],
        "H6": [
          {
            "name": "beginsWithEquals"
          },
          {
            "name": "containsIF"
          },
          {
            "name": "contains_N_IFs"
          },
          {
            "name": "usesCellRefs"
          },
          {
            "name": "referencesCellE6",
            "regex": "E6",
            "data": {
              "mistakeMessage": "This function should include a reference to cell E6."
            }
          },
          {
            "name": "referencesCellF6",
            "regex": "F6",
            "data": {
              "mistakeMessage": "This function should include a reference to cell F6."
            }
          },
          {
            "name": "containsGTorLT"
          },
          {
            "name": "containsMild"
          },
          {
            "name": "containsGiveAsGift"
          },
          {
            "name": "resultIsGiveAsGift",
            "result": "Give as gift",
            "data": {
              "mistakeMessage": "Uh oh. The result of this nested IF statement should be \"Give as gift\"."
            }
          }
        ],
        "H7": [
          {
            "name": "beginsWithEquals"
          },
          {
            "name": "containsIF"
          },
          {
            "name": "contains_N_IFs"
          },
          {
            "name": "usesCellRefs"
          },
          {
            "name": "referencesCellE7",
            "regex": "E7",
            "data": {
              "mistakeMessage": "This function should include a reference to cell E7."
            }
          },
          {
            "name": "referencesCellF7",
            "regex": "F7",
            "data": {
              "mistakeMessage": "This function should include a reference to cell F7."
            }
          },
          {
            "name": "containsGTorLT"
          },
          {
            "name": "containsMild"
          },
          {
            "name": "containsGiveAsGift"
          },
          {
            "name": "resultIsEmptyString"
          }
        ],
        "H8": [
          {
            "name": "beginsWithEquals"
          },
          {
            "name": "containsIF"
          },
          {
            "name": "contains_N_IFs"
          },
          {
            "name": "usesCellRefs"
          },
          {
            "name": "referencesCellE8",
            "regex": "E8",
            "data": {
              "mistakeMessage": "This function should include a reference to cell E8."
            }
          },
          {
            "name": "referencesCellF8",
            "regex": "F8",
            "data": {
              "mistakeMessage": "This function should include a reference to cell F8."
            }
          },
          {
            "name": "containsGTorLT"
          },
          {
            "name": "containsMild"
          },
          {
            "name": "containsGiveAsGift"
          },
          {
            "name": "resultIsEmptyString"
          }
        ],
        "H9": [
          {
            "name": "beginsWithEquals"
          },
          {
            "name": "containsIF"
          },
          {
            "name": "contains_N_IFs"
          },
          {
            "name": "usesCellRefs"
          },
          {
            "name": "referencesCellE9",
            "regex": "E9",
            "data": {
              "mistakeMessage": "This function should include a reference to cell E9."
            }
          },
          {
            "name": "referencesCellF9",
            "regex": "F9",
            "data": {
              "mistakeMessage": "This function should include a reference to cell F9."
            }
          },
          {
            "name": "containsGTorLT"
          },
          {
            "name": "containsMild"
          },
          {
            "name": "containsGiveAsGift"
          },
          {
            "name": "resultIsEmptyString"
          }
        ]
      }
    }
  ]
}
