{
  "title": "Basic IF Statements",
  "steps": [
    {
      "instructions": "<p>This is our hot sauce collection.</p><p>We've been invited to a Mexican fiesta and would like to identify some hot sauces to bring.</p><p>Create an IF statment in the highlighted cell to check if this sauce's country of origin is \"Mexico\". If it is, display \"Yes\", otherwise, display \"No\".</p>",
      "tableData": [
        ["", "Hot Sauce", "Country of Origin", "Bring to Fiesta"],
        ["", "Aztec Fire", "Mexico", ""],
        ["", "Chili Oil", "Japan", ""],
        ["", "Sweet Piri Piri", "Africa", ""],
        ["", "Salse de Guadalupe", "Mexico", ""],
        ["", "Fatalii Fallout", "Africa", ""],
        ["", "Senior Pepe's Peppers", "Mexico", ""],
        ["", "Texas Terror", "USA", ""],
        ["", "Tabasco Sauce", "USA", ""],
        ["", "Bhut Jolokia", "India", ""],
        ["", "Sriracha", "Thailand", ""]
      ],
      "tableSettings": [
        {
          "range": "B1:D1",
          "action": "set",
          "options": {
            "property": "format.font.bold",
            "value": true
          }
        },
        {
          "range": "B1:D1",
          "action": "border",
          "options": {
            "position": "EdgeBottom",
            "style": "Continuous"
          }
        },
        {
          "range": "A:A",
          "action": "set",
          "options": {
            "property": "format.columnWidth",
            "value": 9
          }
        }
      ],
      "checkData": {
        "D2": [
          {
            "name": "beginsWithEquals"
          },
          {
            "name": "containsIF"
          },
          {
            "name": "usesCellRefs"
          },
          {
            "name": "correctAnswer1",
            "regex": "(=IF\\(C2=\"Mexico\",\"Yes\",\"No\"\\)|=IF\\(\"Mexico\"=C2,\"Yes\",\"No\"\\))"
          }
        ]
      },
      "finalMessage": "You got it! We're off to a great start."
    },
    {
      "instructions": "<p>Now, check if the other sauces are from Mexico by populating your IF statement on the remaining rows.</p>",
      "tableData": [
        ["", "Hot Sauce", "Country of Origin", "Bring to Fiesta"],
        ["", "Aztec Fire", "Mexico", "=IF(C2=\"Mexico\", \"Yes\", \"No\")"],
        ["", "Chili Oil", "Japan", ""],
        ["", "Sweet Piri Piri", "Africa", ""],
        ["", "Salse de Guadalupe", "Mexico", ""],
        ["", "Fatalii Fallout", "Africa", ""],
        ["", "Senior Pepe's Peppers", "Mexico", ""],
        ["", "Texas Terror", "USA", ""],
        ["", "Tabasco Sauce", "USA", ""],
        ["", "Bhut Jolokia", "India", ""],
        ["", "Sriracha", "Thailand", ""]
      ],
      "tableSettings": [
        {
          "range": "B1:D1",
          "action": "set",
          "options": {
            "property": "format.font.bold",
            "value": true
          }
        },
        {
          "range": "B1:D1",
          "action": "border",
          "options": {
            "position": "EdgeBottom",
            "style": "Continuous"
          }
        },
        {
          "range": "A:A",
          "action": "set",
          "options": {
            "property": "format.columnWidth",
            "value": 9
          }
        }
      ],
      "checkData": {
        "D3": [
          {
            "name": "beginsWithEquals"
          },
          {
            "name": "containsIF"
          },
          {
            "name": "usesCellRefs"
          },
          {
            "name": "correctAnswer2.1",
            "regex": "=IF\\(C3=\"Mexico\",\"Yes\",\"No\"\\)"
          }
        ],
        "D4": [
          {
            "name": "beginsWithEquals"
          },
          {
            "name": "containsIF"
          },
          {
            "name": "usesCellRefs"
          },
          {
            "name": "correctAnswer2.2",
            "regex": "=IF\\(C4=\"Mexico\",\"Yes\",\"No\"\\)"
          }
        ],
        "D5": [
          {
            "name": "beginsWithEquals"
          },
          {
            "name": "containsIF"
          },
          {
            "name": "usesCellRefs"
          },
          {
            "name": "correctAnswer2.3",
            "regex": "=IF\\(C5=\"Mexico\",\"Yes\",\"No\"\\)"
          }
        ],
        "D6": [
          {
            "name": "beginsWithEquals"
          },
          {
            "name": "containsIF"
          },
          {
            "name": "usesCellRefs"
          },
          {
            "name": "correctAnswer2.4",
            "regex": "=IF\\(C6=\"Mexico\",\"Yes\",\"No\"\\)"
          }
        ],
        "D7": [
          {
            "name": "beginsWithEquals"
          },
          {
            "name": "containsIF"
          },
          {
            "name": "usesCellRefs"
          },
          {
            "name": "correctAnswer2.5",
            "regex": "=IF\\(C7=\"Mexico\",\"Yes\",\"No\"\\)"
          }
        ],
        "D8": [
          {
            "name": "beginsWithEquals"
          },
          {
            "name": "containsIF"
          },
          {
            "name": "usesCellRefs"
          },
          {
            "name": "correctAnswer2.6",
            "regex": "=IF\\(C8=\"Mexico\",\"Yes\",\"No\"\\)"
          }
        ],
        "D9": [
          {
            "name": "beginsWithEquals"
          },
          {
            "name": "containsIF"
          },
          {
            "name": "usesCellRefs"
          },
          {
            "name": "correctAnswer2.7",
            "regex": "=IF\\(C9=\"Mexico\",\"Yes\",\"No\"\\)"
          }
        ],
        "D10": [
          {
            "name": "beginsWithEquals"
          },
          {
            "name": "containsIF"
          },
          {
            "name": "usesCellRefs"
          },
          {
            "name": "correctAnswer2.8",
            "regex": "=IF\\(C10=\"Mexico\",\"Yes\",\"No\"\\)"
          }
        ],
        "D11": [
          {
            "name": "beginsWithEquals"
          },
          {
            "name": "containsIF"
          },
          {
            "name": "usesCellRefs"
          },
          {
            "name": "correctAnswer2.9",
            "regex": "=IF\\(C11=\"Mexico\",\"Yes\",\"No\"\\)"
          }
        ]
      }
    },
    {
      "instructions": "<p>Ok, now instead of displaying \"No\" when we shouldn't bring a sauce, update your formula to display a blank cell by returning an empty string: \"\".</p><p>Then, apply your change to all of the remaining rows.</p>",
      "tableData": [
        ["", "Hot Sauce", "Country of Origin", "Bring to Fiesta"],
        ["", "Aztec Fire", "Mexico", "=IF(C2=\"Mexico\", \"Yes\", \"No\")"],
        ["", "Chili Oil", "Japan", "=IF(C3=\"Mexico\", \"Yes\", \"No\")"],
        ["", "Sweet Piri Piri", "Africa", "=IF(C4=\"Mexico\", \"Yes\", \"No\")"],
        ["", "Salse de Guadalupe", "Mexico", "=IF(C5=\"Mexico\", \"Yes\", \"No\")"],
        ["", "Fatalii Fallout", "Africa", "=IF(C6=\"Mexico\", \"Yes\", \"No\")"],
        ["", "Senior Pepe's Peppers", "Mexico", "=IF(C7=\"Mexico\", \"Yes\", \"No\")"],
        ["", "Texas Terror", "USA", "=IF(C8=\"Mexico\", \"Yes\", \"No\")"],
        ["", "Tabasco Sauce", "USA", "=IF(C9=\"Mexico\", \"Yes\", \"No\")"],
        ["", "Bhut Jolokia", "India", "=IF(C10=\"Mexico\", \"Yes\", \"No\")"],
        ["", "Sriracha", "Thailand", "=IF(C11=\"Mexico\", \"Yes\", \"No\")"]
      ],
      "tableSettings": [
        {
          "range": "B1:D1",
          "action": "set",
          "options": {
            "property": "format.font.bold",
            "value": true
          }
        },
        {
          "range": "B1:D1",
          "action": "border",
          "options": {
            "position": "EdgeBottom",
            "style": "Continuous"
          }
        },
        {
          "range": "A:A",
          "action": "set",
          "options": {
            "property": "format.columnWidth",
            "value": 9
          }
        }
      ],
      "checkData": {
        "D2": [
          {
            "name": "beginsWithEquals"
          },
          {
            "name": "containsIF"
          },
          {
            "name": "usesCellRefs"
          },
          {
            "name": "correctAnswer3.1",
            "regex": "=IF\\(C2=\"Mexico\",\"Yes\",\"\"\\)"
          }
        ],
        "D3": [
          {
            "name": "beginsWithEquals"
          },
          {
            "name": "containsIF"
          },
          {
            "name": "usesCellRefs"
          },
          {
            "name": "correctAnswer3.2",
            "regex": "=IF\\(C3=\"Mexico\",\"Yes\",\"\"\\)"
          }
        ],
        "D4": [
          {
            "name": "beginsWithEquals"
          },
          {
            "name": "containsIF"
          },
          {
            "name": "usesCellRefs"
          },
          {
            "name": "correctAnswer3.3",
            "regex": "=IF\\(C4=\"Mexico\",\"Yes\",\"\"\\)"
          }
        ],
        "D5": [
          {
            "name": "beginsWithEquals"
          },
          {
            "name": "containsIF"
          },
          {
            "name": "usesCellRefs"
          },
          {
            "name": "correctAnswer3.4",
            "regex": "=IF\\(C5=\"Mexico\",\"Yes\",\"\"\\)"
          }
        ],
        "D6": [
          {
            "name": "beginsWithEquals"
          },
          {
            "name": "containsIF"
          },
          {
            "name": "usesCellRefs"
          },
          {
            "name": "correctAnswer3.5",
            "regex": "=IF\\(C6=\"Mexico\",\"Yes\",\"\"\\)"
          }
        ],
        "D7": [
          {
            "name": "beginsWithEquals"
          },
          {
            "name": "containsIF"
          },
          {
            "name": "usesCellRefs"
          },
          {
            "name": "correctAnswer3.6",
            "regex": "=IF\\(C7=\"Mexico\",\"Yes\",\"\"\\)"
          }
        ],
        "D8": [
          {
            "name": "beginsWithEquals"
          },
          {
            "name": "containsIF"
          },
          {
            "name": "usesCellRefs"
          },
          {
            "name": "correctAnswer3.7",
            "regex": "=IF\\(C8=\"Mexico\",\"Yes\",\"\"\\)"
          }
        ],
        "D9": [
          {
            "name": "beginsWithEquals"
          },
          {
            "name": "containsIF"
          },
          {
            "name": "usesCellRefs"
          },
          {
            "name": "correctAnswer3.8",
            "regex": "=IF\\(C9=\"Mexico\",\"Yes\",\"\"\\)"
          }
        ],
        "D10": [
          {
            "name": "beginsWithEquals"
          },
          {
            "name": "containsIF"
          },
          {
            "name": "usesCellRefs"
          },
          {
            "name": "correctAnswer3.9",
            "regex": "=IF\\(C10=\"Mexico\",\"Yes\",\"\"\\)"
          }
        ],
        "D11": [
          {
            "name": "beginsWithEquals"
          },
          {
            "name": "containsIF"
          },
          {
            "name": "usesCellRefs"
          },
          {
            "name": "correctAnswer3.10",
            "regex": "=IF\\(C11=\"Mexico\",\"Yes\",\"\"\\)"
          }
        ]
      }
    }
  ]
}